========================================================================================================================

                         __
         /'\_/`\        /\ \__                           __
        /\      \     __\ \ ,_\    __             _____ /\_\  _____      __
        \ \ \__\ \  /'__`\ \ \/  /'__`\   _______/\ '__`\/\ \/\ '__`\  /'__`\
         \ \ \_/\ \/\  __/\ \ \_/\ \L\.\_/\______\ \ \L\ \ \ \ \ \L\ \/\  __/
          \ \_\\ \_\ \____\\ \__\ \__/.\_\/______/\ \ ,__/\ \_\ \ ,__/\ \____\
           \/_/ \/_/\/____/ \/__/\/__/\/_/         \ \ \/  \/_/\ \ \/  \/____/
                                                    \ \_\       \ \_\
                                                     \/_/        \/_/

        888b     d888          888                             d8b
        8888b   d8888          888                             Y8P
        88888b.d88888          888
        888Y88888P888  .d88b.  888888  8888b.         88888b.  888 88888b.   .d88b.
        888 Y888P 888 d8P  Y8b 888        "88b        888 "88b 888 888 "88b d8P  Y8b
        888  Y8P  888 88888888 888    .d888888 888888 888  888 888 888  888 88888888
        888   "   888 Y8b.     Y88b.  888  888        888 d88P 888 888 d88P Y8b.
        888       888  "Y8888   "Y888 "Y888888        88888P"  888 88888P"   "Y8888
                                                      888          888
                                                      888          888
                                                      888          888


        ______  ___    _____                      _____
        ___   |/  /______  /______ _      ___________(_)____________
        __  /|_/ /_  _ \  __/  __ `/_________  __ \_  /___  __ \  _ \
        _  /  / / /  __/ /_ / /_/ /_/_____/_  /_/ /  / __  /_/ /  __/
        /_/  /_/  \___/\__/ \__,_/        _  .___//_/  _  .___/\___/
                                          /_/          /_/


           \  |        |                        _)
          |\/ |   _ \  __|   _` |         __ \   |  __ \    _ \
          |   |   __/  |    (   | _____|  |   |  |  |   |   __/
         _|  _| \___| \__| \__,_|         .__/  _|  .__/  \___|
                                         _|        _|


        ooo        ooooo               .                                 o8o
        `88.       .888'             .o8                                 `"'
         888b     d'888   .ooooo.  .o888oo  .oooo.           oo.ooooo.  oooo  oo.ooooo.   .ooooo.
         8 Y88. .P  888  d88' `88b   888   `P  )88b           888' `88b `888   888' `88b d88' `88b
         8  `888'   888  888ooo888   888    .oP"888  8888888  888   888  888   888   888 888ooo888
         8    Y     888  888    .o   888 . d8(  888           888   888  888   888   888 888    .o
        o8o        o888o `Y8bod8P'   "888" `Y888""8o          888bod8P' o888o  888bod8P' `Y8bod8P'
                                                              888              888
                                                             o888o            o888o


          __  __      _                    _
         |  \/  | ___| |_ __ _       _ __ (_)_ __   ___
         | |\/| |/ _ \ __/ _` |_____| '_ \| | '_ \ / _ \
         | |  | |  __/ || (_| |_____| |_) | | |_) |  __/
         |_|  |_|\___|\__\__,_|     | .__/|_| .__/ \___|
                                    |_|     |_|



========================================================================================================================

